[gd_scene load_steps=3 format=2]

[ext_resource path="res://Scripts/Menu.gd" type="Script" id=1]
[ext_resource path="res://Resources/theme.tres" type="Theme" id=2]

[node name="Menu" type="Control"]
margin_right = 24.0
margin_bottom = 24.0
theme = ExtResource( 2 )
script = ExtResource( 1 )
__meta__ = {
"_edit_use_anchors_": false
}

[node name="Popup" type="PopupMenu" parent="."]
margin_right = 16.0
margin_bottom = 16.0
