[gd_resource type="SpriteFrames" load_steps=4 format=2]

[ext_resource path="res://Friends/Mikuo/walk_left_2.png" type="Texture" id=1]

[sub_resource type="AtlasTexture" id=1]
flags = 4
atlas = ExtResource( 1 )
region = Rect2( 0, 0, 128, 128 )

[sub_resource type="AtlasTexture" id=2]
flags = 4
atlas = ExtResource( 1 )
region = Rect2( 128, 0, 128, 128 )

[resource]
animations = [ {
"frames": [ SubResource( 1 ), SubResource( 2 ) ],
"loop": true,
"name": "default",
"speed": 2.0
} ]
